Data quality diagnosis
…
Imputate missing values and outliers, resolve skewed data, and binarize continuous variables into categorical variables. And generates an automated report to support it.

This document introduces Data Quality Diagnosis methods provided by the dlookr package. You will learn how to diagnose the quality of tbl_df data that inherits from data.frame and data.frame with functions provided by dlookr.

dlookr synergy with dplyr increases. Particularly in data exploration and data wrangle, it increases the efficiency of the tidyverse package group.

Data: nycflights13

To illustrate basic use of the dlookr package, use the flights data from the nycflights13 package. The flights data frame is data about departure and arrival on all flights departing from NYC in 2013.

library(nycflights13)
dim(flights)
[1] 336776     19
flights
# A tibble: 336,776 x 19
   year month   day dep_time sched_dep_time dep_delay arr_time
  <int> <int> <int>    <int>          <int>     <dbl>    <int>
1  2013     1     1      517            515      2.00      830
2  2013     1     1      533            529      4.00      850
3  2013     1     1      542            540      2.00      923
4  2013     1     1      544            545     -1.00     1004
# ... with 336,772 more rows, and 12 more variables: sched_arr_time <int>,
#   arr_delay <dbl>, carrier <chr>, flight <int>, tailnum <chr>,
#   origin <chr>, dest <chr>, air_time <dbl>, distance <dbl>, hour <dbl>,
#   minute <dbl>, time_hour <dttm>
…
types : the data type of the variable

missing_count : number of missing values

missing_percent : percentage of missing values

unique_count : number of unique values

unique_rate : rate of unique value. unique_count / number of observation

For example, we can diagnose all variables in flights:

diagnose(flights)
# A tibble: 19 x 6
  variables types   missing_count missing_percent unique_count unique_rate
  <chr>     <chr>           <int>           <dbl>        <int>       <dbl>
1 year      integer             0            0               1  0.00000297
2 month     integer             0            0              12  0.0000356 
3 day       integer             0            0              31  0.0000920 
4 dep_time  integer          8255            2.45         1319  0.00392   
# ... with 15 more rows
…
  <chr>     <chr>           <int>           <dbl>        <int>       <dbl>
1 year      integer             0               0            1  0.00000297
2 month     integer             0               0           12  0.0000356 
3 day       integer             0               0           31  0.0000920 
# Select all columns between year and day (inclusive)
diagnose(flights, year:day)
# A tibble: 3 x 6
  variables types   missing_count missing_percent unique_count unique_rate
  <chr>     <chr>           <int>           <dbl>        <int>       <dbl>
1 year      integer             0               0            1  0.00000297
2 month     integer             0               0           12  0.0000356 
3 day       integer             0               0           31  0.0000920 
# Select all columns except those from year to day (inclusive)
diagnose(flights, -(year:day))
# A tibble: 16 x 6
  variables   types missing_count missing_percent unique_count unique_rate
  <chr>       <chr>         <int>           <dbl>        <int>       <dbl>
1 dep_time    inte…          8255            2.45         1319     0.00392
2 sched_dep_… inte…             0            0            1021     0.00303
3 dep_delay   nume…          8255            2.45          528     0.00157
4 arr_time    inte…          8713            2.59         1412     0.00419
# ... with 12 more rows

By using dplyr, variables including missing values can be sorted by the weight of missing values.:

flights %>%
  diagnose() %>%
  select(-unique_count, -unique_rate) %>% 
  filter(missing_count > 0) %>% 
  arrange(desc(missing_count))
# A tibble: 6 x 4
  variables types   missing_count missing_percent
  <chr>     <chr>           <int>           <dbl>
1 arr_delay numeric          9430            2.80
2 air_time  numeric          9430            2.80
3 arr_time  integer          8713            2.59
4 dep_time  integer          8255            2.45
# ... with 2 more rows
…
zero : number of observations with a value of 0

minus : number of observations with negative numbers

outlier : number of outliers

Applying the summary () function to a data frame can help you figure out the distribution of data by printing min, Q1, mean, median, Q3, and max give. However, the result is that analysts can only look at it with eyes. However, returning such information as a data frame structure like tbl_df widens the scope of utilization.

zero, minus, and outlier are useful for diagnosing the integrity of data. For example, numerical data in some cases may not have 0 or a negative number. Since the hypothetical numeric variable ‘employee salary’ can not have a negative or zero value, you should check for zero or negative numbers in the data diagnosis process.

diagnose_numeric() can diagnose all numeric variables of flights as follows.:

diagnose_numeric(flights)
# A tibble: 14 x 10
  variables     min      Q1    mean  median     Q3    max  zero minus
  <chr>       <dbl>   <dbl>   <dbl>   <dbl>  <dbl>  <dbl> <int> <int>
1 year      2013    2013    2013    2013    2013   2013       0     0
2 month        1.00    4.00    6.55    7.00   10.0   12.0     0     0
3 day          1.00    8.00   15.7    16.0    23.0   31.0     0     0
4 dep_time     1.00  907    1349    1401    1744   2400       0     0
# ... with 10 more rows, and 1 more variable: outlier <int>
…
levels: level names

N : Number of observation

freq : Number of observation at the levles

ratio : Percentage of observation at the levles

rank : Rank of occupancy ratio of levels

`diagnose_category() can diagnose all categorical variables of flights as follows.:

diagnose_category(flights)
# A tibble: 33 x 6
  variables levels      N  freq ratio  rank
  <chr>     <chr>   <int> <int> <dbl> <int>
1 carrier   UA     336776 58665  17.4     1
2 carrier   B6     336776 54635  16.2     2
3 carrier   EV     336776 54173  16.1     3
4 carrier   DL     336776 48110  14.3     4
# ... with 29 more rows
In collaboration with filter() in the dplyr package, we can see that the tailnum variable is ranked in top 1 with 2,512 missing values in the case where the missing value is included in the top 10:

diagnose_category(flights) %>% 
  filter(is.na(levels))
# A tibble: 1 x 6
  variables levels      N  freq ratio  rank
  <chr>     <chr>   <int> <int> <dbl> <int>
1 tailnum   <NA>   336776  2512 0.746     1

The following returns a list of levels less than or equal to 0.01%. It should be noted that the top argument has a generous specification of 500. If you use the default value of 10, values below 0.01% would not be included in the list:

flights %>%
  diagnose_category(top = 500)  %>%
  filter(ratio <= 0.01)
# A tibble: 10 x 6
  variables levels      N  freq   ratio  rank
  <chr>     <chr>   <int> <int>   <dbl> <int>
1 carrier   OO     336776    32 0.00950    16
2 dest      JAC    336776    25 0.00742    97
3 dest      PSP    336776    19 0.00564    98
4 dest      EYW    336776    17 0.00505    99
# ... with 6 more rows
…
outliers_cnt : Count of outliers

outliers_ratio : Percent of outliers

outliers_mean : Arithmetic Average of outliers

with_mean : Arithmetic Average of with outliers

without_mean : Arithmetic Average of without outliers

diagnose_outlier() can diagnose anomalies of all numeric variables of flights as follows:

diagnose_outlier(flights)
# A tibble: 14 x 6
  variables outliers_cnt outliers_ratio outliers_mean with_mean
  <chr>            <int>          <dbl>         <dbl>     <dbl>
1 year                 0              0           NaN   2013   
2 month                0              0           NaN      6.55
3 day                  0              0           NaN     15.7 
4 dep_time             0              0           NaN   1349   
# ... with 10 more rows, and 1 more variable: without_mean <dbl>

Numeric variables that contain anomalies are easily found with filter().:

diagnose_outlier(flights) %>% 
  filter(outliers_cnt > 0) 
# A tibble: 5 x 6
  variables outliers_cnt outliers_ratio outliers_mean with_mean
  <chr>            <int>          <dbl>         <dbl>     <dbl>
1 dep_delay        43216      12.8               93.1     12.6 
2 arr_delay        27880       8.28             121        6.90
3 flight               1       0.000297        8500     1972   
4 air_time          5448       1.62             400      151   
# ... with 1 more row, and 1 more variable: without_mean <dbl>
…
