Exploratory Data Analysis
…
p50 : median. 50% percentile

p75 : Q3. 75% percentile

p01, p05, p10, p20, p30 : 1%, 5%, 20%, 30% percentiles

p40, p60, p70, p80 : 40%, 60%, 70%, 80% percentiles

p90, p95, p99, p100 : 90%, 95%, 99%, 100% percentiles

For example, we can computes the statistics of all numerical variables in carseats:

describe(carseats)
# A tibble: 8 x 26
  variable      n    na   mean    sd se_mean   IQR skewness kurtosis   p00
  <chr>     <dbl> <dbl>  <dbl> <dbl>   <dbl> <dbl>    <dbl>    <dbl> <dbl>
1 Sales       400   0     7.50  2.82   0.141  3.93   0.186   -0.0809   0  
2 CompPrice   400   0   125    15.3    0.767 20.0   -0.0428   0.0417  77.0
3 Income      380  20.0  68.9  28.1    1.44  48.2    0.0449  -1.09    21.0
4 Advertis…   400   0     6.64  6.65   0.333 12.0    0.640   -0.545    0  
# ... with 4 more rows, and 16 more variables: p01 <dbl>, p05 <dbl>,
#   p10 <dbl>, p20 <dbl>, p25 <dbl>, p30 <dbl>, p40 <dbl>, p50 <dbl>,
#   p60 <dbl>, p70 <dbl>, p75 <dbl>, p80 <dbl>, p90 <dbl>, p95 <dbl>,
#   p99 <dbl>, p100 <dbl>
…
#   p75 <dbl>, p80 <dbl>, p90 <dbl>, p95 <dbl>, p99 <dbl>, p100 <dbl>
# Select all columns between year and day (inclusive)
describe(carseats, Sales:Income)
# A tibble: 3 x 26
  variable      n    na   mean    sd se_mean   IQR skewness kurtosis   p00
  <chr>     <dbl> <dbl>  <dbl> <dbl>   <dbl> <dbl>    <dbl>    <dbl> <dbl>
1 Sales       400   0     7.50  2.82   0.141  3.93   0.186   -0.0809   0  
2 CompPrice   400   0   125    15.3    0.767 20.0   -0.0428   0.0417  77.0
3 Income      380  20.0  68.9  28.1    1.44  48.2    0.0449  -1.09    21.0
# ... with 16 more variables: p01 <dbl>, p05 <dbl>, p10 <dbl>, p20 <dbl>,
#   p25 <dbl>, p30 <dbl>, p40 <dbl>, p50 <dbl>, p60 <dbl>, p70 <dbl>,
#   p75 <dbl>, p80 <dbl>, p90 <dbl>, p95 <dbl>, p99 <dbl>, p100 <dbl>
# Select all columns except those from year to day (inclusive)
describe(carseats, -(Sales:Income))
# A tibble: 5 x 26
  variable     n    na   mean     sd se_mean   IQR skewness kurtosis   p00
  <chr>    <dbl> <dbl>  <dbl>  <dbl>   <dbl> <dbl>    <dbl>    <dbl> <dbl>
1 Adverti…   400     0   6.64   6.65   0.333  12.0   0.640    -0.545   0  
2 Populat…   400     0 265    147      7.37  260    -0.0512   -1.20   10.0
3 Price      400     0 116     23.7    1.18   31.0  -0.125     0.452  24.0
4 Age        400     0  53.3   16.2    0.810  26.2  -0.0772   -1.13   25.0
# ... with 1 more row, and 16 more variables: p01 <dbl>, p05 <dbl>,
#   p10 <dbl>, p20 <dbl>, p25 <dbl>, p30 <dbl>, p40 <dbl>, p50 <dbl>,
#   p60 <dbl>, p70 <dbl>, p75 <dbl>, p80 <dbl>, p90 <dbl>, p95 <dbl>,
#   p99 <dbl>, p100 <dbl>

By using dplyr, You can sort by left or right skewed size(skewness).:

carseats %>%
  describe() %>%
  select(variable, skewness, mean, p25, p50, p75) %>% 
  filter(!is.na(skewness)) %>% 
  arrange(desc(abs(skewness)))
# A tibble: 8 x 6
  variable    skewness   mean    p25    p50    p75
  <chr>          <dbl>  <dbl>  <dbl>  <dbl>  <dbl>
1 Advertising   0.640    6.64   0      5.00  12.0 
2 Sales         0.186    7.50   5.39   7.49   9.32
3 Price        -0.125  116    100    117    131   
4 Age          -0.0772  53.3   39.8   54.5   66.0 
# ... with 4 more rows
…
carseats %>%
  group_by(US, Urban) %>% 
  describe(Sales, Income) 
# A tibble: 12 x 28
  variable US    Urban     n    na  mean    sd se_mean   IQR skewness
  <chr>    <fct> <fct> <dbl> <dbl> <dbl> <dbl>   <dbl> <dbl>    <dbl>
1 Sales    No    No    46.0      0  6.46  2.72   0.402 3.15    0.0889
2 Sales    No    Yes   92.0      0  7.00  2.58   0.269 3.49    0.492 
3 Sales    No    <NA>   4.00     0  6.99  1.28   0.639 0.827   1.69  
4 Sales    Yes   No    69.0      0  8.23  2.65   0.319 4.10   -0.0212
# ... with 8 more rows, and 18 more variables: kurtosis <dbl>, p00 <dbl>,
#   p01 <dbl>, p05 <dbl>, p10 <dbl>, p20 <dbl>, p25 <dbl>, p30 <dbl>,
#   p40 <dbl>, p50 <dbl>, p60 <dbl>, p70 <dbl>, p75 <dbl>, p80 <dbl>,
#   p90 <dbl>, p95 <dbl>, p99 <dbl>, p100 <dbl>
…
normality() performs a normality test on numerical data. Shapiro-Wilk normality test is performed. If the number of observations is larger than 5000, 5000 observations are extracted by random simple sampling and then tested.

The variables of tbl_df object returned by normality() are as follows.

statistic : Statistics of the Shapiro-Wilk test

p_value : p-value of the Shapiro-Wilk test

sample : Number of sample observations performed Shapiro-Wilk test

normality() performs the normality test for all numerical variables of carseats as follows.:

normality(carseats)
# A tibble: 8 x 4
  vars        statistic               p_value sample
  <chr>           <dbl>                 <dbl>  <dbl>
1 Sales           0.995 0.254                    400
2 CompPrice       0.998 0.977                    400
3 Income          0.961 0.0000000152             400
4 Advertising     0.874 0.0000000000000000149    400
# ... with 4 more rows
…
# Select all columns between year and day (inclusive)
normality(carseats, Sales:Income)
# A tibble: 3 x 4
  vars      statistic      p_value sample
  <chr>         <dbl>        <dbl>  <dbl>
1 Sales         0.995 0.254           400
2 CompPrice     0.998 0.977           400
3 Income        0.961 0.0000000152    400

# Select all columns except those from year to day (inclusive)
normality(carseats, -(Sales:Income))
# A tibble: 5 x 4
  vars        statistic               p_value sample
  <chr>           <dbl>                 <dbl>  <dbl>
1 Advertising     0.874 0.0000000000000000149    400
2 Population      0.952 0.000000000408           400
3 Price           0.996 0.390                    400
4 Age             0.957 0.00000000186            400
# ... with 1 more row

You can use dplyr to sort non-normal distribution variables by p_value.:

library(dplyr)

carseats %>%
  normality() %>%
  filter(p_value <= 0.01) %>% 
  arrange(abs(p_value))
# A tibble: 5 x 4
  vars        statistic               p_value sample
  <chr>           <dbl>                 <dbl>  <dbl>
1 Advertising     0.874 0.0000000000000000149    400
2 Education       0.924 0.000000000000243        400
3 Population      0.952 0.000000000408           400
4 Age             0.957 0.00000000186            400
# ... with 1 more row

In particular, the Advertising variable is considered to be the most out of the normal distribution.

The normality() function supports the group_by() function syntax in the dplyr package.

carseats %>%
  group_by(ShelveLoc, US) %>%
  normality(Income) %>% 
  arrange(desc(p_value))
# A tibble: 6 x 6
  variable ShelveLoc US    statistic p_value sample
  <chr>    <fct>     <fct>     <dbl>   <dbl>  <dbl>
1 Income   Bad       No        0.969  0.470    34.0
2 Income   Bad       Yes       0.958  0.0343   62.0
3 Income   Good      No        0.902  0.0328   24.0
4 Income   Good      Yes       0.955  0.0296   61.0
# ... with 2 more rows
…
Bivariate data EDA

Calculation of correlation coefficient using correlate()

Correlate() finds the correlation coefficient of all combinations of carseats numerical variables as follows:

correlate(carseats)
# A tibble: 56 x 3
  var1        var2  coef_corr
  <fct>       <fct>     <dbl>
1 CompPrice   Sales    0.0641
2 Income      Sales    0.151 
3 Advertising Sales    0.270 
4 Population  Sales    0.0505
# ... with 52 more rows

The following example performs a normality test only on combinations that include several selected variables.

# Select columns by name
correlate(carseats, Sales, CompPrice, Income)
# A tibble: 21 x 3
  var1      var2      coef_corr
  <fct>     <fct>         <dbl>
1 CompPrice Sales        0.0641
2 Income    Sales        0.151 
3 Sales     CompPrice    0.0641
4 Income    CompPrice   -0.0761
# ... with 17 more rows

# Select all columns between year and day (inclusive)
correlate(carseats, Sales:Income)
# A tibble: 21 x 3
  var1      var2      coef_corr
  <fct>     <fct>         <dbl>
1 CompPrice Sales        0.0641
2 Income    Sales        0.151 
3 Sales     CompPrice    0.0641
4 Income    CompPrice   -0.0761
# ... with 17 more rows

# Select all columns except those from year to day (inclusive)
correlate(carseats, -(Sales:Income))
# A tibble: 35 x 3
  var1        var2  coef_corr
  <fct>       <fct>     <dbl>
1 Advertising Sales    0.270 
2 Population  Sales    0.0505
3 Price       Sales   -0.445 
4 Age         Sales   -0.232 
# ... with 31 more rows
…
The correlate() function also supports the group_by() function syntax in the dplyr package.

carseats %>%
  filter(ShelveLoc == "Good") %>%
  group_by(Urban, US) %>%
  correlate(Sales) %>%
  filter(abs(coef_corr) > 0.5)
# A tibble: 12 x 5
  Urban US    var1  var2   coef_corr
  <fct> <fct> <fct> <fct>      <dbl>
1 No    No    Sales Income    -0.540
2 No    No    Sales Price     -0.943
3 No    No    Sales Age       -0.722
4 No    Yes   Sales Price     -0.791
# ... with 8 more rows
…
